{
  "appName": "external-links",
  "userGivenName": "external-links",
  "destNamespace": "default",
  "destServer": "https://kubernetes.default.svc",
  "srcPath": "external",
  "srcRepoURL": "https://gitlab.com/fosc-upct/fosc-k8s.git",
  "srcTargetRevision": "",
  "labels": null,
  "annotations": null,
  "exclude": "",
  "include": ""
}